-------------------------------------------------------------------------------
Test set: testCases.UserCreateCommentTests
-------------------------------------------------------------------------------
Tests run: 1, Failures: 0, Errors: 0, Skipped: 0, Time elapsed: 73.863 s - in testCases.UserCreateCommentTests
