C:\Users\User\Desktop\QA\Git\finalprojectasgard\finalProject_Chrome\src\test\java\testCases\UnregisteredUserTests.java
C:\Users\User\Desktop\QA\Git\finalprojectasgard\finalProject_Chrome\src\test\java\testCases\UserChangeFirstNameTest.java
C:\Users\User\Desktop\QA\Git\finalprojectasgard\finalProject_Chrome\src\test\java\testCases\UserConnectRequestSendTest.java
C:\Users\User\Desktop\QA\Git\finalprojectasgard\finalProject_Chrome\src\test\java\testCases\UserCreateCommentTest.java
C:\Users\User\Desktop\QA\Git\finalprojectasgard\finalProject_Chrome\src\test\java\testCases\UserPasswordResetTest.java
C:\Users\User\Desktop\QA\Git\finalprojectasgard\finalProject_Chrome\src\test\java\testCases\BaseTest.java
C:\Users\User\Desktop\QA\Git\finalprojectasgard\finalProject_Chrome\src\test\java\runner\Runner.java
C:\Users\User\Desktop\QA\Git\finalprojectasgard\finalProject_Chrome\src\test\java\stepdefinitions\StepDefinitions.java
C:\Users\User\Desktop\QA\Git\finalprojectasgard\finalProject_Chrome\src\test\java\testCases\UserCreatePostTest.java
C:\Users\User\Desktop\QA\Git\finalprojectasgard\finalProject_Chrome\src\test\java\stepdefinitions\BaseStepDefinitions.java
C:\Users\User\Desktop\QA\Git\finalprojectasgard\finalProject_Chrome\src\test\java\testCases\UserConnectRequestTestConfirm.java
C:\Users\User\Desktop\QA\Git\finalprojectasgard\finalProject_Chrome\src\test\java\reporter\JbehaveStoryReporter.java
C:\Users\User\Desktop\QA\Git\finalprojectasgard\finalProject_Chrome\src\test\java\testCases\AdminCreateCategoryTest.java
